{
  "palabras": [
    "Arquitectura",
    "Embajador",
    "Fotosintesis",
    "Hipopotamo",
    "Murcielago",
    "Onomatopeya",
    "Quirofano",
    "Renacuajo",
    "Zoologico",
    "Xilofono"
  ]
}